Ej8/Verilog simulation/bin/output.vcd
$date
	Tue Oct 22 04:31:07 2019
$end
$version
	Icarus Verilog
$end
$timescale
	1ns
$end
$scope module simulation_tb $end
$var reg 1 ! comp $end
$upscope $end
$scope module simulation_tb $end
$var integer 32 " countInt [31:0] $end
$upscope $end
$scope module simulation_tb $end
$var integer 32 # validCountInt [31:0] $end
$upscope $end
$scope module simulation_tb $end
$var integer 32 $ showedCountInt [31:0] $end
$upscope $end
$scope module simulation_tb $end
$var integer 32 % sevenSegOutInt [31:0] $end
$upscope $end
$scope module simulation_tb $end
$var wire 1 & clk1 $end
$upscope $end
$scope module simulation_tb $end
$var wire 1 ' clk2 $end
$upscope $end
$scope module simulation_tb $end
$var wire 1 ( clk3 $end
$upscope $end
$enddefinitions $end
#0
$dumpvars
0(
1'
0&
bx %
bx $
bx #
b0 "
0!
$end
#15
b0 #
#10000
b0 $
b0 %
1(
#50000
1&
#100000
0&
#150000
1&
#200000
0&
#250000
1&
#300000
0&
#350000
1&
#400000
0&
#450000
1&
#500000
0&
#550000
1&
#600000
0&
#650000
1&
#700000
0&
#750000
1&
#800000
0&
#850000
1&
#900000
0&
#950000
1&
#1000000
0&
#1050000
1&
#1100000
0&
#1150000
1&
#1200000
0&
#1250000
1&
#1300000
0&
#1350000
1&
#1400000
0&
#1450000
1&
#1500000
0&
#1550000
1&
#1600000
0&
#1650000
1&
#1700000
0&
#1750000
1&
#1800000
0&
#1850000
1&
#1900000
0&
#1950000
1&
#2000000
0&
#2050000
1&
#2100000
0&
#2150000
1&
#2200000
0&
#2250000
1&
#2300000
0&
#2350000
1&
#2400000
0&
#2450000
1&
#2500000
0&
#2550000
1&
#2600000
0&
#2650000
1&
#2700000
0&
#2750000
1&
#2800000
0&
#2850000
1&
#2900000
0&
#2950000
1&
#3000000
0&
#3050000
1&
#3100000
0&
#3150000
1&
#3200000
0&
#3250000
1&
#3300000
0&
#3350000
1&
#3400000
0&
#3450000
1&
#3500000
0&
#3550000
1&
#3600000
0&
#3650000
1&
#3700000
0&
#3750000
1&
#3800000
0&
#3850000
1&
#3900000
0&
#3950000
1&
#4000000
0&
#4050000
1&
#4100000
0&
#4150000
1&
#4200000
0&
#4250000
1&
#4300000
0&
#4350000
1&
#4400000
0&
#4450000
1&
#4500000
0&
#4550000
1&
#4600000
0&
#4650000
1&
#4700000
0&
#4750000
1&
#4800000
0&
#4850000
1&
#4900000
0&
#4950000
1&
#5000000
0&
#5050000
1&
#5100000
0&
#5150000
1&
#5200000
0&
#5250000
1&
#5300000
0&
#5350000
1&
#5400000
0&
#5450000
1&
#5500000
0&
#5550000
1&
#5600000
0&
#5650000
1&
#5700000
0&
#5750000
1&
#5800000
0&
#5850000
1&
#5900000
0&
#5950000
1&
#6000000
0&
#6050000
1&
#6100000
0&
#6150000
1&
#6200000
0&
#6250000
1&
#6300000
0&
#6350000
1&
#6400000
0&
#6450000
1&
#6500000
0&
#6550000
1&
#6600000
0&
#6650000
1&
#6700000
0&
#6750000
1&
#6800000
0&
#6850000
1&
#6900000
0&
#6950000
1&
#7000000
0&
#7050000
1&
#7100000
0&
#7150000
1&
#7200000
0&
#7250000
1&
#7300000
0&
#7350000
1&
#7400000
0&
#7450000
1&
#7500000
0&
#7550000
1&
#7600000
0&
#7650000
1&
#7700000
0&
#7750000
1&
#7800000
0&
#7850000
1&
#7900000
0&
#7950000
1&
#8000000
0&
#8050000
1&
#8100000
0&
#8150000
1&
#8200000
0&
#8250000
1&
#8300000
0&
#8350000
1&
#8400000
0&
#8450000
1&
#8500000
0&
#8550000
1&
#8600000
0&
#8650000
1&
#8700000
0&
#8750000
1&
#8800000
0&
#8850000
1&
#8900000
0&
#8950000
1&
#9000000
0&
#9050000
1&
#9100000
0&
#9150000
1&
#9200000
0&
#9250000
1&
#9300000
0&
#9350000
1&
#9400000
0&
#9450000
1&
#9500000
0&
#9550000
1&
#9600000
0&
#9650000
1&
#9700000
0&
#9750000
1&
#9800000
0&
#9850000
1&
#9900000
0&
#9950000
1&
#10000000
0&
0'
#10050000
1&
#10100000
0&
#10150000
1&
#10200000
0&
#10250000
1&
#10300000
0&
#10350000
1&
#10400000
0&
#10450000
1&
#10500000
0&
#10550000
1&
#10600000
0&
#10650000
1&
#10700000
0&
#10750000
1&
#10800000
0&
#10850000
1&
#10900000
0&
#10950000
1&
#11000000
0&
#11050000
1&
#11100000
0&
#11150000
1&
#11200000
0&
#11250000
1&
#11300000
0&
#11350000
1&
#11400000
0&
#11450000
1&
#11500000
0&
#11550000
1&
#11600000
0&
#11650000
1&
#11700000
0&
#11750000
1&
#11800000
0&
#11850000
1&
#11900000
0&
#11950000
1&
#12000000
0&
#12050000
1&
#12100000
0&
#12150000
1&
#12200000
0&
#12250000
1&
#12300000
0&
#12350000
1&
#12400000
0&
#12450000
1&
#12500000
0&
#12550000
1&
#12600000
0&
#12650000
1&
#12700000
0&
#12750000
1&
#12800000
0&
#12850000
1&
#12900000
0&
#12950000
1&
#13000000
0&
#13050000
1&
#13100000
0&
#13150000
1&
#13200000
0&
#13250000
1&
#13300000
0&
#13350000
1&
#13400000
0&
#13450000
1&
#13500000
0&
#13550000
1&
#13600000
0&
#13650000
1&
#13700000
0&
#13750000
1&
#13800000
0&
#13850000
1&
#13900000
0&
#13950000
1&
#14000000
0&
#14050000
1&
#14100000
0&
#14150000
1&
#14200000
0&
#14250000
1&
#14300000
0&
#14350000
1&
#14400000
0&
#14450000
1&
#14500000
0&
#14550000
1&
#14600000
0&
#14650000
1&
#14700000
0&
#14750000
1&
#14800000
0&
#14850000
1&
#14900000
0&
#14950000
1&
#15000000
0&
#15050000
1&
#15100000
0&
#15150000
1&
#15200000
0&
#15250000
1&
#15300000
0&
#15350000
1&
#15400000
0&
#15450000
1&
#15500000
0&
#15550000
1&
#15600000
0&
#15650000
1&
#15700000
0&
#15750000
1&
#15800000
0&
#15850000
1&
#15900000
0&
#15950000
1&
#16000000
0&
#16050000
1&
#16100000
0&
#16150000
1&
#16200000
0&
#16250000
1&
#16300000
0&
#16350000
1&
#16400000
0&
#16450000
1&
#16500000
0&
#16550000
1&
#16600000
0&
#16650000
1&
#16700000
0&
#16750000
1&
#16800000
0&
#16850000
1&
#16900000
0&
#16950000
1&
#17000000
0&
#17050000
1&
#17100000
0&
#17150000
1&
#17200000
0&
#17250000
1&
#17300000
0&
#17350000
1&
#17400000
0&
#17450000
1&
#17500000
0&
#17550000
1&
#17600000
0&
#17650000
1&
#17700000
0&
#17750000
1&
#17800000
0&
#17850000
1&
#17900000
0&
#17950000
1&
#18000000
0&
#18050000
1&
#18100000
0&
#18150000
1&
#18200000
0&
#18250000
1&
#18300000
0&
#18350000
1&
#18400000
0&
#18450000
1&
#18500000
0&
#18550000
1&
#18600000
0&
#18650000
1&
#18700000
0&
#18750000
1&
#18800000
0&
#18850000
1&
#18900000
0&
#18950000
1&
#19000000
0&
#19050000
1&
#19100000
0&
#19150000
1&
#19200000
0&
#19250000
1&
#19300000
0&
#19350000
1&
#19400000
0&
#19450000
1&
#19500000
0&
#19550000
1&
#19600000
0&
#19650000
1&
#19700000
0&
#19750000
1&
#19800000
0&
#19850000
1&
#19900000
0&
#19950000
1&
#20000000
0&
1'
1!
#20050000
b1 "
1&
#20100000
0&
0!
#20100015
b1 #
b1 $
#20150000
1&
#20200000
0&
#20250000
1&
#20300000
0&
#20350000
1&
#20400000
0&
#20450000
1&
#20500000
0&
#20550000
1&
#20600000
0&
#20650000
1&
#20700000
0&
#20750000
1&
#20800000
0&
#20850000
1&
#20900000
0&
#20950000
1&
#21000000
0&
#21050000
1&
#21100000
0&
#21150000
1&
#21200000
0&
#21250000
1&
#21300000
0&
#21350000
1&
#21400000
0&
#21450000
1&
#21500000
0&
#21550000
1&
#21600000
0&
#21650000
1&
#21700000
0&
#21750000
1&
#21800000
0&
#21850000
1&
#21900000
0&
#21950000
1&
#22000000
0&
#22050000
1&
#22100000
0&
#22150000
1&
#22200000
0&
#22250000
1&
#22300000
0&
#22350000
1&
#22400000
0&
#22450000
1&
#22500000
0&
#22550000
1&
#22600000
0&
#22650000
1&
#22700000
0&
#22750000
1&
#22800000
0&
#22850000
1&
#22900000
0&
#22950000
1&
#23000000
0&
#23050000
1&
#23100000
0&
#23150000
1&
#23200000
0&
#23250000
1&
#23300000
0&
#23350000
1&
#23400000
0&
#23450000
1&
#23500000
0&
#23550000
1&
#23600000
0&
#23650000
1&
#23700000
0&
#23750000
1&
#23800000
0&
#23850000
1&
#23900000
0&
#23950000
1&
#24000000
0&
#24050000
1&
#24100000
0&
#24150000
1&
#24200000
0&
#24250000
1&
#24300000
0&
#24350000
1&
#24400000
0&
#24450000
1&
#24500000
0&
#24550000
1&
#24600000
0&
#24650000
1&
#24700000
0&
#24750000
1&
#24800000
0&
#24850000
1&
#24900000
0&
#24950000
1&
#25000000
0&
#25050000
1&
#25100000
0&
#25150000
1&
#25200000
0&
#25250000
1&
#25300000
0&
#25350000
1&
#25400000
0&
#25450000
1&
#25500000
0&
#25550000
1&
#25600000
0&
#25650000
1&
#25700000
0&
#25750000
1&
#25800000
0&
#25850000
1&
#25900000
0&
#25950000
1&
#26000000
0&
#26050000
1&
#26100000
0&
#26150000
1&
#26200000
0&
#26250000
1&
#26300000
0&
#26350000
1&
#26400000
0&
#26450000
1&
#26500000
0&
#26550000
1&
#26600000
0&
#26650000
1&
#26700000
0&
#26750000
1&
#26800000
0&
#26850000
1&
#26900000
0&
#26950000
1&
#27000000
0&
#27050000
1&
#27100000
0&
#27150000
1&
#27200000
0&
#27250000
1&
#27300000
0&
#27350000
1&
#27400000
0&
#27450000
1&
#27500000
0&
#27550000
1&
#27600000
0&
#27650000
1&
#27700000
0&
#27750000
1&
#27800000
0&
#27850000
1&
#27900000
0&
#27950000
1&
#28000000
0&
#28050000
1&
#28100000
0&
#28150000
1&
#28200000
0&
#28250000
1&
#28300000
0&
#28350000
1&
#28400000
0&
#28450000
1&
#28500000
0&
#28550000
1&
#28600000
0&
#28650000
1&
#28700000
0&
#28750000
1&
#28800000
0&
#28850000
1&
#28900000
0&
#28950000
1&
#29000000
0&
#29050000
1&
#29100000
0&
#29150000
1&
#29200000
0&
#29250000
1&
#29300000
0&
#29350000
1&
#29400000
0&
#29450000
1&
#29500000
0&
#29550000
1&
#29600000
0&
#29650000
1&
#29700000
0&
#29750000
1&
#29800000
0&
#29850000
1&
#29900000
0&
#29950000
1&
#30000000
0&
0'
#30000015
b0 "
